[
  {
    "id": "1",
    "customer": {
      "id": "1",
      "identity": "51503178",
      "name": "Khách hàng A",
      "address": "485 Xa lộ Hà Nội, Phường Linh Trung, Thủ Đức, Hồ Chí Minh",
      "email": "khachhanga@customer.com",
      "phone": "0123456789",
      "birthDay": "11/11/1999",
      "gender": "m"
    },
    "createdBy": {
      "name": "Trần Thị B"
    },
    "products": [
      {
        "name": "Mirinda",
        "quantity": 3,
        "price": 10000,
        "id": "PROD0003",
        "supplier": {
          "name": "7Up Việt Nam"
        },
        "image": "https://media-ak.static-adayroi.com/sys_master/images/h47/h41/15564637995038.jpg"
      },
      {
        "name": "Mì Hảo Hảo",
        "quantity": 2,
        "price": 3500,
        "id": "PROD0001",
        "supplier": {
          "name": "Công ty CP Acecook Việt Nam"
        },
        "image": "https://media-ak.static-adayroi.com/sys_master/h2f/h4b/9599051104286.jpg"
      }
    ],
    "totalCost": 37000,
    "totalAmount": 5,
    "status": "success",
    "createdTime": "11/05/2019"
  },
  {
    "id": "2",
    "customer": {
      "name": "Nguyễn Văn D"
    },
    "createdBy": {
      "name": "Trần Thị B"
    },
    "products": [
      {
        "name": "ItemA",
        "price": 1000,
        "quantity": 4
      },
      {
        "name": "ItemB",
        "price": 2000,
        "quantity": 1
      }
    ],
    "totalCost": 6000,
    "totalAmount": 5,
    "status": {
      "name": "success"
    },
    "createdTime": "12/05/2019"
  },
  {
    "id": "3",
    "customer": {
      "name": "Nguyễn Văn C"
    },
    "createdBy": {
      "name": "Trần Thị B"
    },
    "products": [
      {
        "name": "ItemA",
        "price": 1000,
        "quantity": 1
      },
      {
        "name": "ItemB",
        "price": 2000,
        "quantity": 1
      }
    ],
    "totalCost": 3000,
    "totalAmount": 2,
    "status": "canceled",
    "createdTime": "11/05/2019"
  }
]